{
    "PRLA_Benzo_A_Pyrene_conc0_annual.txt": [
        {
            "Date": "12/31/2039",
            "Benthic Carnivore in Sed_Water_LacDesAllemands": "5.81751233E-08",
            "Water Column Carnivore in SW_Water_LacDesAllemands": "5.00649530E-08",
            "Soil - Surface in SurfSoil_Surface_W1": "5.87480046E-04",
            "Root - Grasses/Herbs in Grasses/Herbs in SurfSoil_Surface_SW1": "6.80954064E-10",
            "Air in Air_Air_1_1": "5.93097841E-05",
            "Soil - Surface in SurfSoil_Surface_Farm_S_E": "1.21092009E-05"
        }
    ],
    "PRLA_Benzo_A_Pyrene_dep0_annual.txt": [
         {
            "Date": "12/31/2039",
            "Wet Particle Deposition to Soil - Surface in SurfSoil_Surface_Farm_S_E": "2.49551E-09",
            "Dry Particle Deposition to Soil - Surface in SurfSoil_Surface_Farm_S_E": "0.00000000311953859"
         }
    ]
}